<?xml version="1.0" encoding="UTF-8"?>
<kml xmlns="http://www.opengis.net/kml/2.2" xmlns:gx="http://www.google.com/kml/ext/2.2" xmlns:kml="http://www.opengis.net/kml/2.2" xmlns:atom="http://www.w3.org/2005/Atom">
<Document>
	<name>BRAZIL.kml</name>
	<open>1</open>
	<StyleMap id="mouseover">
		<Pair>
			<key>normal</key>
			<Style>
				<IconStyle>
					<scale>0.5</scale>
					<Icon>
						<href>https://mapa.socioambiental.org/images/ambiente/ramsar.png</href>
					</Icon>
				</IconStyle>
				<LabelStyle>
					<scale>0</scale>
				</LabelStyle>
			</Style>
		</Pair>
		<Pair>
			<key>highlight</key>
			<Style>
				<IconStyle>
					<scale>0.7</scale>
					<Icon>
						<href>https://mapa.socioambiental.org/images/ambiente/ramsar.png</href>
					</Icon>
				</IconStyle>
			</Style>
		</Pair>
	</StyleMap>
	<Folder id="c78">
		<name>BRAZIL</name>
		<Snippet maxLines="0"></Snippet>
		<description><![CDATA[<table width="450">
<tr><td>
Available products:<br>


<a href="http://www.ducks.org/lac/pantanal">Unofficial Data: The tri-national Pantanal GIS database</a><br>


</td></tr></table>]]></description>
		<Placemark id="s1020">
			<name>1020, Baixada Maranhense Environmental Protection Area</name>
			<Snippet maxLines="0"></Snippet>
			<description><![CDATA[<b>6BR006</b><br>
	country: BRAZIL<br>
	coordinates: 03°00'S 044°57'W<br>
	<hr>
	 Baixada Maranhense Environmental Protection Area. 29/02/00; Maranhão; 1,775,036 ha; 03°00'S 044°57'W. Extensive low, seasonally flooded coastal lands characterized by fields, gallery forests, mangrove swamps, and lacustrine basins along the northeast coast of Brazil. The site qualifies under all of the representative/uniqueness criteria (new Criterion 1) and most of the biodiversity criteria, including those for waterfowl and fish. The Maranhense coast concentrates large fluvial and fluvial-marine plains and flat lowlands, crossed by canals of brackish water, relatively unaffected by human activity due to a population density of only 26 inhabitants per square km. At certain times, seawater is able to reach far up the rivers, and the area is different from other seasonally flooded parts of the Amazon or perennially flooded areas of the Pantanal because of this marine influence and saline intrusion. The four significant rivers rise annually and flood their banks to fill the many lakes with water for gradual release over time. In the estuaries, mangrove swamps occur by penetrating the narrow natural waterways among the fields up to the limit of tidal influence. During Dec.-June rainy seasons the fields are flooded, leaving small islands called "tesos". Human uses include subsistence agriculture (mainly rice, corn, cassava and beans), fisheries, mineral exploitation of clay and sand, exploitation of plants (especially nuts from the Babaçu), and limited ecotourism. Potential threats include mangrove deforestation and growing urban and industrial development. An "ecological economic zoning project" is under study for implementation in 2000. Ramsar site no. 1020. Most recent RIS information: 2000.


	<br><hr>
	<a href="http://www.wetlands.org/reports/index.cfm?siteref=6BR006">More site information from the Ramsar database</a><br>
	<a href="http://www.wetlands.org/reports/infosheet.cfm?siteref=6BR006">Ramsar information sheet</a>
	<br><br>]]></description>
			<LookAt>
				<longitude>-44.95</longitude>
				<latitude>-3</latitude>
				<altitude>0</altitude>
				<heading>0</heading>
				<tilt>0</tilt>
				<range>21000</range>
			</LookAt>
			<styleUrl>#mouseover</styleUrl>
			<Point>
				<coordinates>-44.95,-3,0</coordinates>
			</Point>
		</Placemark>
		<Placemark id="s624">
			<name>624, Ilha do Bananal</name>
			<Snippet maxLines="0"></Snippet>
			<description><![CDATA[<b>6BR004</b><br>
	country: BRAZIL<br>
	coordinates: 10°31'S 050°12'W<br>
	<hr>
	 Ilha do Bananal. 04/10/93; Tocantins; 562,312 ha; 10º31'S 050º12'W. National park. Extensive floodplain system of the Araguaia River with navigable medium to high flow rivers, seasonal lagoons, marshes and numerous islands. Ilha do Bananal is the largest fluvial island in the world. A diverse flora and fauna representing the transition zone between humid tropical forest of the Amazon Basin and woody savannas with gallery forest are present. The site is an extremely rich area for waterbirds, with a wide variety of resident breeding species and many Nearctic shorebirds occurring on migration. Human activities include illegal grazing of domestic livestock, poaching, and some illegal settlement. Ramsar site no. 624. Most recent RIS information: 2002.


      
	<br><hr>
	<a href="http://www.wetlands.org/reports/index.cfm?siteref=6BR004">More site information from the Ramsar database</a><br>
	<a href="http://www.wetlands.org/reports/infosheet.cfm?siteref=6BR004">Ramsar information sheet</a>
	<br><br>]]></description>
			<LookAt>
				<longitude>-50.2</longitude>
				<latitude>-10.5166666667</latitude>
				<altitude>0</altitude>
				<heading>0</heading>
				<tilt>0</tilt>
				<range>21000</range>
			</LookAt>
			<styleUrl>#mouseover</styleUrl>
			<Point>
				<coordinates>-50.2,-10.5166666667,0</coordinates>
			</Point>
		</Placemark>
		<Placemark id="s603">
			<name>603, Lagoa do Peixe</name>
			<Snippet maxLines="0"></Snippet>
			<description><![CDATA[<b>6BR002</b><br>
	country: BRAZIL<br>
	coordinates: 31°14'S 050°57'W<br>
	<hr>
	 Lagoa do Peixe. 24/05/93; Rio Grande do Sul; 34,400 ha; 31º14'S 050º57'W. Western Hemisphere Shorebird Reserve Network Site; National Park. Extensive lowland area of saltmarshes, coastal sand dunes, lagoons, lakes and associated marshes, providing important staging sites for numerous migrant species. Lagoa do Peixe is a large brackish to saline lagoon, supporting large concentrations of invertebrates. The area is very important for a wide variety of waterfowl, and the lagoon is an important wintering and staging area for migrant species. Human activities include hunting, irrigation of rice fields, and harvesting of shrimp (uncontrolled). Ramsar site no. 603. Most recent RIS information: 1998.


	<br><hr>
	<a href="http://www.wetlands.org/reports/index.cfm?siteref=6BR002">More site information from the Ramsar database</a><br>
	<a href="http://www.wetlands.org/reports/infosheet.cfm?siteref=6BR002">Ramsar information sheet</a>
	<br><br>]]></description>
			<LookAt>
				<longitude>-50.95</longitude>
				<latitude>-31.2333333333</latitude>
				<altitude>0</altitude>
				<heading>0</heading>
				<tilt>0</tilt>
				<range>21000</range>
			</LookAt>
			<styleUrl>#mouseover</styleUrl>
			<Point>
				<coordinates>-50.95,-31.2333333333,0</coordinates>
			</Point>
		</Placemark>
		<Placemark id="s623">
			<name>623, Mamirauá</name>
			<Snippet maxLines="0"></Snippet>
			<description><![CDATA[<b>6BR003</b><br>
	country: BRAZIL<br>
	coordinates: 02°18'S 066°02'W<br>
	<hr>
	 Mamirauá. 04/10/93; Amazonas; 1,124,000 ha; 02º18'S 066º02'W. Biological Station. "Varzea" forest with several lakes seasonally connected by natural drainage canals. The area has a high degree of endemism. Human activities include forestry, rotating agriculture, controlled commercial fishing, and collection of aquarium fish. Ramsar site no. 623. Most recent RIS information: 1998.


	<br><hr>
	<a href="http://www.wetlands.org/reports/index.cfm?siteref=6BR003">More site information from the Ramsar database</a><br>
	<a href="http://www.wetlands.org/reports/infosheet.cfm?siteref=6BR003">Ramsar information sheet</a>
	<br><br>]]></description>
			<LookAt>
				<longitude>-66.03333333330001</longitude>
				<latitude>-2.3</latitude>
				<altitude>0</altitude>
				<heading>0</heading>
				<tilt>0</tilt>
				<range>21000</range>
			</LookAt>
			<styleUrl>#mouseover</styleUrl>
			<Point>
				<coordinates>-66.03333333330001,-2.3,0</coordinates>
			</Point>
		</Placemark>
		<Placemark id="s602">
			<name>602, Pantanal Matogrossense</name>
			<Snippet maxLines="0"></Snippet>
			<description><![CDATA[<b>6BR001</b><br>
	country: BRAZIL<br>
	coordinates: 17°39'S 057°25'W<br>
	<hr>
	 Pantanal Matogrossense. 24/05/93; Mato Grosso; 135,000 ha; 17º39'S 057º25'W. National Park. Part of the largest, permanent freshwater wetland in the Western Hemisphere. It is situated in a large depression functioning as an inland delta. The area consists of a vast region of seasonally flooded savannas, islands of xerophytic scrub, and humid deciduous forest. The site includes some of the largest and most spectacular concentrations of wildlife in the Neotropics and is probably the most important wetland in South America for waterfowl. There are huge resident breeding populations of a wide variety of species, and Nearctic shorebirds use the area for staging. An ecological station is located on the site. Ramsar site no. 602. Most recent RIS information: 1998.


      
	<br><hr>
	<a href="http://www.wetlands.org/reports/index.cfm?siteref=6BR001">More site information from the Ramsar database</a><br>
	<a href="http://www.wetlands.org/reports/infosheet.cfm?siteref=6BR001">Ramsar information sheet</a>
	<br><br>]]></description>
			<LookAt>
				<longitude>-57.4166666667</longitude>
				<latitude>-17.65</latitude>
				<altitude>0</altitude>
				<heading>0</heading>
				<tilt>0</tilt>
				<range>21000</range>
			</LookAt>
			<styleUrl>#mouseover</styleUrl>
			<Point>
				<coordinates>-57.4166666667,-17.65,0</coordinates>
			</Point>
		</Placemark>
		<Placemark id="s1021">
			<name>1021, Par.Est.Mar. do Parcel Manoel Luís incl. the Baixios do Mestre Alvaro and Tarol</name>
			<Snippet maxLines="0"></Snippet>
			<description><![CDATA[<b>6BR007</b><br>
	country: BRAZIL<br>
	coordinates: 00°30'S 044°45'W<br>
	<hr>
	 Parque Estadual Marinho do Parcel Manoel Luís including the Baixios do Mestre Álvaro and Tarol. 29/02/00; Maranhão; 34,556 ha; ca.00°30'S 044°45'W. State Marine Park. Three coral banks off the northern coast of Maranhão, at the northern distribution limit of several fish species endemic to the Brazilian coast. The area is very important for fishery production and of extremely high scientific value. Numerous shipwrecks have been found in the area and await further study. Though the area is attractive to amateur and professional divers, tourism is limited, and because of difficult local currents and distance from the coast, only experienced divers are encouraged. Threats include coral bleaching associated with climate change, the possibility of environmentally harmful shipwrecks where navigation is still hazardous, and pollution from hull washing by ships near São Marcos Bay. Owned by the federal government under the administration of Maranhão. Ramsar site no. 1021. Most recent RIS information: 2000.


      
	<br><hr>
	<a href="http://www.wetlands.org/reports/index.cfm?siteref=6BR007">More site information from the Ramsar database</a><br>
	<a href="http://www.wetlands.org/reports/infosheet.cfm?siteref=6BR007">Ramsar information sheet</a>
	<br><br>]]></description>
			<LookAt>
				<longitude>-44.75</longitude>
				<latitude>-0.5</latitude>
				<altitude>0</altitude>
				<heading>0</heading>
				<tilt>0</tilt>
				<range>21000</range>
			</LookAt>
			<styleUrl>#mouseover</styleUrl>
			<Point>
				<coordinates>-44.75,-0.5,0</coordinates>
			</Point>
		</Placemark>
		<Placemark id="s640">
			<name>640, Reentrancias Maranhenses</name>
			<Snippet maxLines="0"></Snippet>
			<description><![CDATA[<b>6BR005</b><br>
	country: BRAZIL<br>
	coordinates: 01°41'S 045°04'W<br>
	<hr>
	 Reentrancias Maranhenses. 30/11/93; Maranhão; 2,680,911 ha; 01º41'S 045º04'W. Western Hemisphere Shorebird Reserve Network Site; Area of Environmental Protection. A complex estuarine system of extensive islands, bays, coves, and rugged coastline covered mainly by mangrove forest. The site is of great importance for numerous species of fish, shellfish and migratory birds. The manatee (Trichechu manatus) is also present. Local communities practice subsistence fishing. Ramsar site no. 640. Most recent RIS information: 1998.


	<br><hr>
	<a href="http://www.wetlands.org/reports/index.cfm?siteref=6BR005">More site information from the Ramsar database</a><br>
	<a href="http://www.wetlands.org/reports/infosheet.cfm?siteref=6BR005">Ramsar information sheet</a>
	<br><br>]]></description>
			<LookAt>
				<longitude>-45.0666666667</longitude>
				<latitude>-1.68333333333</latitude>
				<altitude>0</altitude>
				<heading>0</heading>
				<tilt>0</tilt>
				<range>21000</range>
			</LookAt>
			<styleUrl>#mouseover</styleUrl>
			<Point>
				<coordinates>-45.06666666669999,-1.68333333333,0</coordinates>
			</Point>
		</Placemark>
		<Placemark id="s1864">
			<name>1864, Reserva Particular del Patrimonio Natural (RPPN) &quot;Fazenda Rio Negro&quot;</name>
			<Snippet maxLines="0"></Snippet>
			<description><![CDATA[<b>6BR009</b><br>
	country: BRAZIL<br>
	coordinates: 19°33'S  56°13'W<br>
	<hr>
	 Reserva Particular del Patrimonio Natural (RPPN) Fazenda Rio Negro.22/05/09; Mato Grosso del Sur; 7,000 ha; 19°33'S 056°13'W. Reserva Privada del Patrimonio Natural (RPPN). A well-preserved example of the Pantanal of Nhecolândia, a subregion of the Brazilian Pantanal that is characterized by the abundant presence of freshwater or alkaline lakes (baías' and salinas', respectively), as well as permanent and intermittent rivers. The site hosts more than 400 species of plants, 350 of birds and 70 of mammals. Among them stand out threatened species, such as the Giant Otter (Pteronura brasiliensis), Marsh deer (Blastocerus dichotomus), and Hyacinth Macaw (Anodorhynchus hyacinthinus). Migratory bird species are also present in the site, e.g. Tringa melanoleuca, Himantopus melanurus, Tachybaptus dominicus, Dendrocygna viduatam andCoscoroba coscoroba. Cattle farming is related to two of the main threats to the site: uncontrolled fires caused by neighboring ranches and the introduction of exotic herbs. In the area hunting and fishing are legally banned. The management plan is currently under revision. Ramsar site no. 1864. Most recent RIS information: 2009.
	<br><hr>
	<a href="http://www.wetlands.org/reports/index.cfm?siteref=6BR009">More site information from the Ramsar database</a><br>
	<a href="http://www.wetlands.org/reports/infosheet.cfm?siteref=6BR009">Ramsar information sheet</a>
	<br><br>]]></description>
			<LookAt>
				<longitude>-56.2166666667</longitude>
				<latitude>-19.55</latitude>
				<altitude>0</altitude>
				<heading>0</heading>
				<tilt>0</tilt>
				<range>21000</range>
			</LookAt>
			<styleUrl>#mouseover</styleUrl>
			<Point>
				<coordinates>-56.2166666667,-19.55,0</coordinates>
			</Point>
		</Placemark>
		<Placemark id="s1270">
			<name>1270, Reserva Particular do Patrimonio Natural SESC Pantanal</name>
			<Snippet maxLines="0"></Snippet>
			<description><![CDATA[<b>6BR008</b><br>
	country: BRAZIL<br>
	coordinates: 16°39'S 056°15'W<br>
	<hr>
	 Reserva Particular do Patrimonio Natural SESC Pantanal. 06/12/02; Mato Grosso State; 87,871 ha; 16º39'S 056º15'W. Privately owned nature reserve. A significant and representative sample of the large Pantanal wetlands, known as Poconé's Pantanal, a private estate fully owned by the Serviço Nacional do Comercio (SESC) and established in 1998 as a reserve. The site, a mix of permanent rivers, seasonal streams, permanent and seasonal floodplain fresh water lakes, shrub-dominated wetlands, and seasonally flooded forests, satisfies all eight Ramsar criteria for designation as a Wetland of International Importance and is an excellent ecological complement to the Pantanal Matogrossense, already on the Ramsar List. The site contains several endangered species including hyacinth macaws Anodorhynchus hyacinthinus, giant otters Pteronura brasiliensis, and marsh deer Blastocerus dichotomus, as well as numerous nesting sites for the rare Jabiru Jabiru mycteria. Populations of over 20,000 cormorants Phalacrocorax brasiliensis and some of the Pantanal's healthiest nesting sites for wood stork Mycteria americana are also found within. Many of the 260 fish species in the Pantanal are also believed to be found in the Reserva, a good number having a high commercial value. Since sport and commercial fishing is prohibited inside, the reserve provides essential ecological refuge for fish in the Cuiabá and Sâo Lourenço rivers. The SESC administers this private reserve, under the supervision of the Brazilian Intitute for the Environment and Natural Renewable Resources (IBAMA), and is responsible for implementing its management plan and carrying out environmental education activities and non-intensive ecotourism at the site. Ramsar site no. 1270.Most recent RIS information: 2002.


	<br><hr>
	<a href="http://www.wetlands.org/reports/index.cfm?siteref=6BR008">More site information from the Ramsar database</a><br>
	<a href="http://www.wetlands.org/reports/infosheet.cfm?siteref=6BR008">Ramsar information sheet</a>
	<br><br>]]></description>
			<LookAt>
				<longitude>-56.25</longitude>
				<latitude>-16.65</latitude>
				<altitude>0</altitude>
				<heading>0</heading>
				<tilt>0</tilt>
				<range>21000</range>
			</LookAt>
			<styleUrl>#mouseover</styleUrl>
			<Point>
				<coordinates>-56.25,-16.65,0</coordinates>
			</Point>
		</Placemark>
		<Placemark id="s1900">
			<name>1900, Rio Doce State Park (Parque Estadual do Rio Doce)</name>
			<Snippet maxLines="0"></Snippet>
			<description><![CDATA[<b>6BR010</b><br>
	country: BRAZIL<br>
	coordinates: 19°38'S 42°31'W<br>
	<hr>
	 Rio Doce State Park (Parque Estadual do Rio Doce).15/03/10; Minas Gerais; 35,973 hectares; 19º38'S 042º32'W. State Park. Located in the southeastern region of Brazil, the site is the largest vegetation fragmet of the endangered Atlantic Rain Forest in Minas Gerais State. In addition to permanent and seasonal rivers, there are 42 natural lakes that represent 6% of the park surface. The site hosts 10 different vegetation communities, 325 species of birds, and at least 77 of mammals. The endemic and threatened Brazilian rosewood (Dalbergia nigra) can be found here, as well as other threatened species, such as jaguar (Panthera onca), Harpy eagle (Harpia harpyja), Red Billed Currasow (Crax blumenbachii) and North Muriqui, thelargest primate of South America and important seed disperser (Brachyteles hypoxanthus). One of the main threats is the introduction of exotic fish species that have led to changes in the fish community. Nevertheless, the site has a management plan that is being implemented. The site is a fully protected area (Category II, IUCN) and is one of the core areas of the Atlantic Forest Biosphere Reserve (UNESCO). Ramsar site no. 1900. Most recent RIS information: 2009.
	<br><hr>
	<a href="http://www.wetlands.org/reports/index.cfm?siteref=6BR010">More site information from the Ramsar database</a><br>
	<a href="http://www.wetlands.org/reports/infosheet.cfm?siteref=6BR010">Ramsar information sheet</a>
	<br><br>]]></description>
			<LookAt>
				<longitude>-42.5166666667</longitude>
				<latitude>-19.6333333333</latitude>
				<altitude>0</altitude>
				<heading>0</heading>
				<tilt>0</tilt>
				<range>21000</range>
			</LookAt>
			<styleUrl>#mouseover</styleUrl>
			<Point>
				<coordinates>-42.5166666667,-19.6333333333,0</coordinates>
			</Point>
		</Placemark>
	</Folder>
</Document>
</kml>
